%YAML 1.1
%TAG !u! tag:unity3d.com,2011:
--- !u!78 &1
TagManager:
  serializedVersion: 2
  tags:
  - playerModel_sprayer
  - playerModel_rifle
  - playerModel_sprayer_firePoint
  - playerModel_rifle_firePoint
  - playerModel_lobUnit_handPosition
  - playerModel_sprayer_fire
  - playerModel_sprayer_ice
  - outlaw_snipeRay
  - chikChik_dynaSpawnPos
  - SPLAT_fistObj
  - camStencilSphere
  - player_bouncePadRay
  layers:
  - Default
  - TransparentFX
  - Ignore Raycast
  - 
  - Water
  - UI
  - 
  - 
  - Collectable
  - Level Geometry
  - Player
  - Enemy
  - 
  - 
  - 
  - 
  - 
  - 
  - 
  - 
  - 
  - 
  - 
  - 
  - 
  - 
  - 
  - 
  - 
  - 
  - 
  - 
  m_SortingLayers:
  - name: Default
    uniqueID: 0
    locked: 0
