%YAML 1.1
%TAG !u! tag:unity3d.com,2011:
--- !u!1 &7574986598252117834
GameObject:
  m_ObjectHideFlags: 0
  m_CorrespondingSourceObject: {fileID: 0}
  m_PrefabInstance: {fileID: 0}
  m_PrefabAsset: {fileID: 0}
  serializedVersion: 6
  m_Component:
  - component: {fileID: 837108080744804047}
  - component: {fileID: 2953954144138912990}
  m_Layer: 0
  m_Name: sE_lobPrevent
  m_TagString: Untagged
  m_Icon: {fileID: 0}
  m_NavMeshLayer: 0
  m_StaticEditorFlags: 0
  m_IsActive: 1
--- !u!4 &837108080744804047
Transform:
  m_ObjectHideFlags: 0
  m_CorrespondingSourceObject: {fileID: 0}
  m_PrefabInstance: {fileID: 0}
  m_PrefabAsset: {fileID: 0}
  m_GameObject: {fileID: 7574986598252117834}
  m_LocalRotation: {x: 0, y: 0, z: 0, w: 1}
  m_LocalPosition: {x: 61.9, y: 1.6309824, z: -106.08}
  m_LocalScale: {x: 1, y: 1, z: 1}
  m_Children: []
  m_Father: {fileID: 0}
  m_RootOrder: 0
  m_LocalEulerAnglesHint: {x: 0, y: 0, z: 0}
--- !u!114 &2953954144138912990
MonoBehaviour:
  m_ObjectHideFlags: 0
  m_CorrespondingSourceObject: {fileID: 0}
  m_PrefabInstance: {fileID: 0}
  m_PrefabAsset: {fileID: 0}
  m_GameObject: {fileID: 7574986598252117834}
  m_Enabled: 1
  m_EditorHideFlags: 0
  m_Script: {fileID: 11500000, guid: f331e92494b7fd44ab312a1f4c8511a0, type: 3}
  m_Name: 
  m_EditorClassIdentifier: 
  allSoundEffects:
  - {fileID: 8300000, guid: 53804e2d84122bd408fdd614c32e01c1, type: 3}
  pitchRangePercent: {x: 90, y: 105}
  loopMode: 0
  spatial: 0
  spatialRadius: 0
  volumePercent: 60
